Vou usar o pacote `dplyr` para manipular o dado:

``` r
library(dplyr)
library(readr)

caixeta <- 
  "http://ecologia.ib.usp.br/bie5782/lib/exe/fetch.php?media=dados:caixeta.csv" %>%
  read_csv() %>%
  arrange(local, arvore, fuste)

caixeta
```

    # A tibble: 1,027 × 7
        local parcela arvore fuste   cap     h                especie
        <chr>   <int>  <int> <int> <int> <int>                  <chr>
    1  chauas       1      1     1   210    80      Myrcia sulfiflora
    2  chauas       1      3     1   170    80      Myrcia sulfiflora
    3  chauas       1      4     1   720    70 Syagrus romanzoffianus
    4  chauas       1      5     1   200    80   Tabebuia cassinoides
    5  chauas       1      6     1   750   170                indet.1
    6  chauas       1      7     1   320    80      Myrcia sulfiflora
    7  chauas       1      8     1   480   160   Tabebuia cassinoides
    8  chauas       1      9     1   240   140   Tabebuia cassinoides
    9  chauas       1     10     1   290   120   Tabebuia cassinoides
    10 chauas       1     10     2   310   120   Tabebuia cassinoides
    # ... with 1,017 more rows
…
Checando os valores mais extremos para `cap`:

``` r
caixeta %>%
  arrange(desc(cap))
```

    # A tibble: 1,027 × 7
        local parcela arvore fuste   cap     h                   especie
        <chr>   <int>  <int> <int> <int> <int>                     <chr>
    1  jureia       4    106     1  2100   160  Calophyllum brasiliensis
    2  jureia       4    105     1  1400   100      Tabebuia cassinoides
    3  jureia       1     26     1  1170   200      Tabebuia cassinoides
    4  chauas       4    199     1  1130   190 Callophyllum brasiliensis
    5  chauas       5    245     1  1120   140 Callophyllum brasiliensis
    6  jureia       1     28     1  1050   220      Tabebuia cassinoides
    7  chauas       2     83     1  1020   140 Callophyllum brasiliensis
    8  jureia       1      1     1   980   150      Tabebuia cassinoides
    9  chauas       4    186     1   930   200 Callophyllum brasiliensis
    10 retiro       1     14     1   920    90                   Ilex sp
    # ... with 1,017 more rows

Vamos também checar os valores extremos de `h`:

``` r
caixeta %>%
  arrange(desc(h))
```

    # A tibble: 1,027 × 7
        local parcela arvore fuste   cap     h                   especie
        <chr>   <int>  <int> <int> <int> <int>                     <chr>
    1  chauas       5    232     1   130   480      Tabebuia cassinoides
    2  chauas       1     23     1   670   230      Tabebuia cassinoides
    3  jureia       1     28     1  1050   220      Tabebuia cassinoides
    4  chauas       4    186     1   930   200 Callophyllum brasiliensis
    5  jureia       1     26     1  1170   200      Tabebuia cassinoides
    6  chauas       4    199     1  1130   190 Callophyllum brasiliensis
    7  jureia       2     49     1   610   180      Tabebuia cassinoides
    8  jureia       2     67     1   620   180      Tabebuia cassinoides
    9  jureia       2     67     2   410   180      Tabebuia cassinoides
    10 chauas       1      6     1   750   170                   indet.1
    # ... with 1,017 more rows
…
